…
prop_cities %>% 
    rename('Lower level CI'= conf.low ,
         'Upper Level CI' = conf.high,
         Proportion = estimate,
         City = city_state)
```

    ## # A tibble: 50 × 4
    ##    City            Proportion `Lower level CI` `Upper Level CI`
    ##    <fct>                <dbl>            <dbl>            <dbl>
    ##  1 Chicago,IL            73.6             72.4             74.7
    ##  2 Philadelphia,PA       44.8             43               46.6
    ##  3 Houston,TX            50.8             48.9             52.6
    ##  4 Baltimore,MD          64.6             62.8             66.3
    ##  5 Detroit,MI            58.8             56.9             60.8
    ##  6 Los Angeles,CA        49               46.9             51.1
    ##  7 St. Louis,MO          54.0             51.5             56.4
    ##  8 Dallas,TX             48.1             45.6             50.6
    ##  9 Memphis,TN            31.9             29.6             34.3
    ## 10 New Orleans,LA        64.8             62.3             67.3
    ## # … with 40 more rows
…
